{
  "project_info": {
    "project_number": "176716159166",
    "project_id": "my-patient-4fedc",
    "storage_bucket": "my-patient-4fedc.appspot.com"
  },
  "client": [
    {
      "client_info": {
        "mobilesdk_app_id": "1:176716159166:android:16c269428988b1cf5d66ef",
        "android_client_info": {
          "package_name": "com.example.serg_log2"
        }
      },
      "oauth_client": [
        {
          "client_id": "176716159166-bci4p3feq3p76l4s42etoldaaud3kna8.apps.googleusercontent.com",
          "client_type": 1,
          "android_info": {
            "package_name": "com.example.serg_log2",
            "certificate_hash": "139530dfdba4df898743716a38857ec91aa44811"
          }
        },
        {
          "client_id": "176716159166-amtt5mt7rg22t91cekhg2s43vaf8rm43.apps.googleusercontent.com",
          "client_type": 3
        }
      ],
      "api_key": [
        {
          "current_key": "AIzaSyDIv2x0EENyAjMUWDpMgEiTV6puyBU0rjk"
        }
      ],
      "services": {
        "appinvite_service": {
          "other_platform_oauth_client": [
            {
              "client_id": "176716159166-amtt5mt7rg22t91cekhg2s43vaf8rm43.apps.googleusercontent.com",
              "client_type": 3
            }
          ]
        }
      }
    }
  ],
  "configuration_version": "1"
}